task-clock;context-switches;cpu-migrations;page-faults;cycles;stalled-cycles-frontend;stalled-cycles-backend;instructions;branches;branch-misses;seconds
223222.28;3546871;322219;319579;669070771019;85647179605;101799240827;281505709091;55210952314;5260257342;594.486392189
225212.70;3539885;317272;318046;662514467154;83637348481;101119652228;281722083030;55163293405;5232351700;605.095493052
225752.68;3548905;322928;319144;665318495447;84679960740;100974476735;280777192596;55206961420;5261053140;600.092501244
2828.27;88465;10357;102837;8391189571;1070418852;2273283176;7995552382;1305279514;35383590;606.315935409
226554.92;3543226;319409;318392;666717444862;85679629828;101323856706;281336779381;55145960025;5273195071;606.131786911
232411.23;3586130;347117;324484;668394401293;89116895129;99264272467;281939600325;55226458971;5222526621;630.366404867
224771.88;3551866;325943;321939;668327046487;86411240057;100878559313;280922146216;55112571820;5241953000;596.698093618
228281.32;3553672;327866;318481;667772067718;85315363066;101042342343;281634725577;55112543976;5237158748;604.675578560
227961.30;3544483;321553;319840;668033913525;86677191990;100968190831;281564725530;55144946267;5247185876;607.571753843
229862.24;3563989;332739;319199;664799656871;85965184397;99957973024;281300986125;55017734072;5267922527;622.751040132
231147.45;3587254;347911;320241;669872291137;86896588071;101103765153;281782059820;55106532486;5272318649;622.571376993
228183.22;3550152;327016;319255;667721195576;86347652672;100234761792;282339047152;55272714574;5237833213;601.398159860
234617.04;3596609;354185;323352;665601034777;86293983702;98737124356;282014540732;55256350375;5240899535;633.173453423
225816.61;3547013;320908;321601;666686966756;85929390016;101036503717;282379663314;55321906555;5262133867;604.985670286
229263.75;3587043;348661;324809;668850138740;85828372416;100297658672;281781824591;55284858393;5273415620;619.024098294
226410.53;3545104;321332;322574;666134544806;85164789962;99735196365;281839406546;55236716716;5247902420;596.982532168
2651.49;86899;10359;102635;8161924418;1069423294;2151557563;7150279095;1235410396;34554525;594.567842774
224946.02;3549336;324345;319671;669501224287;85978288979;100927436245;281805439932;55196290975;5234075737;596.104219552
229638.23;3567987;335383;321648;670404421552;86516845168;100570431271;281388503558;55130928074;5267918935;614.144072340
230476.33;3558120;344231;313651;661181609930;85976286969;98041289344;279292627950;54678129390;5206110502;616.383717620
223336.46;3548896;323714;318720;670840680266;86539552417;101726949123;281928871407;55241186409;5234475817;590.491694738
226564.98;3550537;323737;317747;668386003026;85223907209;100511908834;280931524779;55126408432;5279623273;598.554439084
224228.08;3544412;321773;318209;665582392308;84028305235;100591846904;281540872530;55185980899;5242878269;597.026720129
231180.23;3578193;344483;323827;668841436364;88550427123;99251829988;282017444756;55164828327;5244885226;623.393977005
235116.31;3588835;369961;319228;670946687033;87394793795;99646225968;281529205004;55203390096;5232241572;626.394374280
232356.43;3592673;353259;324580;667959988591;87595837503;99216117825;282163900980;55258126772;5252469714;623.732717862
231753.35;3556652;327347;321577;667476438707;85586729315;99086970745;281817813135;55224163460;5260617046;619.769813775
227721.84;3541206;318272;320033;666007512897;86339158470;101033303646;281165249469;55166166543;5259575198;604.915682207
229736.02;3569866;335728;324014;669100673498;85916041752;100576565272;281400811961;55192244676;5293201509;622.004579183
229096.76;3558810;328080;322977;665443421247;85826327481;100486196606;280733397565;54936903814;5217088493;618.516871794
