task-clock;context-switches;cpu-migrations;page-faults;cycles;stalled-cycles-frontend;stalled-cycles-backend;instructions;branches;branch-misses;seconds
560212.54;8042860;1161493;1440320;2129588058928;337102983115;358490277631;803293227556;161351204804;14572085120;639.449151182
634206.70;9041183;1317671;1558279;2364142935709;381526093617;394479026077;889639145118;178599892833;16173743857;663.802313343
523039.08;7543001;1122512;1410343;1982202407915;317367796011;330355232015;746627428253;149949829449;13498933644;636.166783261
552423.40;7900872;1080671;1418343;2065372640038;323561013801;346963698596;794699853627;159636893443;14338710601;627.430714818
693986.22;9921405;1453229;1518901;2620893104613;415757549090;439278528679;980702945172;197327231116;17967525116;627.715145542
697639.46;10030273;1550463;1597640;2647934623934;423924833814;442808908904;984798838446;198075980366;18033351304;660.057773757
578980.06;8221670;1306155;1560729;2172954306096;353171083097;359675713973;812817237375;163146006234;14740356555;694.394003597
592636.56;8250423;1362053;1570507;2200285980337;361390609026;362328998139;816751829548;163892740828;14802447056;730.039081335
525020.72;7438257;1151057;1514569;1947562522449;313510853768;322562503373;735537422162;147395593004;13261536246;700.767250552
561685.37;8025845;1187719;1473623;2109979610508;336036945106;351805883115;797764489632;160217889089;14468230814;656.292489805
576577.72;8187272;1279300;1537471;2151682686500;349819028360;355595844650;809739883333;162555445117;14662240490;686.013960233
561902.59;8100407;1203419;1433536;2130567968902;338851922938;356764673387;803261609439;161361071714;14580927018;631.473386607
665435.12;9619178;1460637;1546665;2503527974174;402526206850;418982197905;933545295768;187696244143;17056124444;644.154210537
574176.64;8263301;1204158;1440699;2175791543693;345207560506;364270675792;822590601728;165320551547;14956011598;637.879975630
563739.34;8107943;1237457;1476421;2133372899893;341509468727;354967084492;800822758102;160851853499;14518140150;651.930663955
581850.18;8278868;1149102;1447864;2195585573015;346008893240;366405330847;831886395494;167187392169;15117633252;624.601027447
559551.84;7878914;1166961;1524821;2061084392628;326628235001;341843814770;785284138627;157548326487;14206517788;682.487062250
607386.38;8691455;1280150;1464090;2295436794138;366175553671;380735503438;858802302024;172668780860;15646332081;641.572691378
705370.91;10048242;1569238;1630652;2645190250799;427186984204;439250758623;986388899557;198365054198;18047584745;681.856214237
573168.68;8147982;1199961;1502740;2148868363742;342798311497;359556564751;812140032039;163071461051;14715936856;665.590647871
543122.72;7692622;1185697;1511731;2026979437195;323959834466;336322773213;766226705966;153739724157;13851247919;691.541924204
575914.88;8188222;1240061;1515421;2160920457362;348792689371;358011932159;813484677873;163314177695;14767019318;670.947429518
545496.39;7829758;1146939;1425581;2063649054252;328420988742;345892069278;780435941465;156378071889;14098342348;634.763877098
560844.39;8012904;1238361;1515875;2111588101040;341670809669;349948954091;795663267861;159671040035;14332297544;670.864575512
581576.48;8279263;1288095;1562755;2185811739210;350481221440;359233839818;809692707903;162386574929;14714127760;682.970350969
549214.28;7835106;1216565;1532514;2049480170482;328196977730;342624239171;771718782384;154760625335;13952697459;685.585246312
595309.18;8614146;1277551;1475447;2250650585353;362778521047;378269737618;841307319918;169009463353;15331182706;634.908522777
552176.81;8006002;1197227;1413366;2103433385326;335760746382;352244023475;790192583544;158759516491;14319509787;627.958303313
583546.21;8332817;1253715;1508519;2173694387790;347998770525;362035348779;818863685883;164370580565;14840469770;660.962108037
223795.08;3133542;484905;1366633;845176905152;147744088952;144279563852;325270406146;63251384811;5666298484;669.645820119
